-8 976
-40 -320 616
-32 952
160 -800 16
-400 -16 8 -24 -32 -400 -16 40
-160 -80 72 -160 -160 -120 192
-320 -160 -48 -24 208 -16 -24 -8 120
-8 -16 -24 -16 8 -40 -320 504
-80 -80 -80 -80 -80 -32 512
608 -80 -32 248
-80 -80 -80 -80 -80 -80 -80 -80 -80 -80 -80 24
-64 16 -16 160 -400 296
-240 240 -160 -160 160
-56 928
